<svg  viewBox="0 0 21 19" xmlns="http://www.w3.org/2000/svg">
<path d="M6.87126 12.9204H17.6331C17.6533 12.9204 17.6736 12.9191 17.6932 12.9172C17.7001 12.9165 17.7064 12.9153 17.7134 12.9146C17.726 12.9127 17.7387 12.9115 17.7513 12.9089C17.7589 12.9076 17.7671 12.9057 17.7747 12.9038C17.7861 12.9013 17.7974 12.8981 17.8088 12.8949C17.8164 12.893 17.824 12.8905 17.8316 12.8879C17.8448 12.8835 17.8581 12.8784 17.8714 12.8733C17.8802 12.8701 17.8884 12.8663 17.8973 12.8625C17.9099 12.8568 17.9226 12.8511 17.9352 12.8441C17.9422 12.8403 17.9485 12.8365 17.9554 12.8326C17.9655 12.8269 17.9757 12.8206 17.9851 12.8142C17.9915 12.8098 17.9978 12.8053 18.0041 12.8009C18.0142 12.7939 18.0237 12.7862 18.0332 12.7786C18.0382 12.7742 18.0439 12.7704 18.049 12.7659C18.061 12.7557 18.073 12.7449 18.0844 12.7335C18.0863 12.7316 18.0888 12.7297 18.0907 12.7271C18.104 12.7138 18.1172 12.6992 18.1292 12.6846C18.1324 12.6807 18.1356 12.6763 18.1387 12.6718C18.1476 12.661 18.1558 12.6496 18.1634 12.6382C18.1672 12.6324 18.1716 12.6261 18.1754 12.6204C18.1817 12.6102 18.188 12.6 18.1937 12.5898C18.1975 12.5829 18.2019 12.5759 18.2057 12.5682C18.2108 12.5581 18.2158 12.5485 18.2202 12.5384C18.224 12.5307 18.2278 12.5231 18.231 12.5149C18.2354 12.5034 18.2398 12.4913 18.2436 12.4793C18.2462 12.4723 18.2487 12.4653 18.2512 12.4576L20.2604 5.98425C20.3179 5.79866 20.2901 5.59654 20.1839 5.43383C20.0784 5.27112 19.9052 5.16434 19.7131 5.14273L4.82797 3.49213L4.47657 2.35825C4.18016 1.40424 3.35096 0.717176 2.3625 0.608491L1.16295 0.475654C0.807758 0.436248 0.487961 0.694295 0.448777 1.05213C0.409592 1.40932 0.666188 1.73093 1.02138 1.77034L2.22093 1.90254C2.69683 1.95529 3.0969 2.28643 3.23973 2.74595L3.70426 4.24275C3.70742 4.25737 3.71058 4.27199 3.715 4.28597L6.04648 11.7979C5.35127 12.1151 4.86652 12.8187 4.86652 13.6347C4.86652 14.182 5.08457 14.6784 5.43786 15.0419C5.08393 15.4271 4.86652 15.9413 4.86652 16.5057C4.86652 17.6948 5.82907 18.6628 7.01156 18.6628C8.19405 18.6628 9.1566 17.6948 9.1566 16.5057C9.1566 16.2019 9.0934 15.9127 8.98027 15.6508H14.6475C14.5344 15.9133 14.4712 16.2025 14.4712 16.5057C14.4712 17.6948 15.4337 18.6628 16.6162 18.6628C17.7987 18.6628 18.7612 17.6948 18.7612 16.5057C18.7612 15.3165 17.7987 14.3485 16.6162 14.3485H6.87062C6.47941 14.3485 6.16088 14.0282 6.16088 13.6347C6.16088 13.2407 6.47941 12.9204 6.87126 12.9204Z" />
</svg>
