<svg viewBox="0 0 24 24"  xmlns="http://www.w3.org/2000/svg">
<g clip-path="url(#clip0)" fill="none">
<path d="M16.9995 23.9899C17.1078 23.9948 17.2111 23.9997 17.3193 23.9997C18.4756 23.9997 19.44 23.5815 20.1978 22.7598C20.2027 22.7549 20.2125 22.745 20.2174 22.7401C20.4881 22.4154 20.7931 22.1201 21.1179 21.8101C21.3393 21.5986 21.5656 21.3821 21.7772 21.1557C22.7859 20.1028 22.781 18.7693 21.7674 17.7557L18.9627 14.9511C18.4805 14.4492 17.9049 14.1835 17.2947 14.1835C16.6895 14.1835 16.1089 14.4443 15.612 14.9413L13.9538 16.5995C13.8062 16.5158 13.6536 16.442 13.506 16.3682C13.3191 16.2747 13.1468 16.1861 12.9943 16.0927C11.4739 15.1283 10.0962 13.8686 8.77753 12.2498C8.11327 11.4134 7.67536 10.7147 7.36538 9.99628C7.79837 9.60265 8.20184 9.19426 8.59055 8.79571C8.73325 8.65301 8.87594 8.5054 9.02355 8.35779C10.0765 7.30483 10.0765 6.00092 9.02355 4.95288L7.63108 3.56041C7.4687 3.39803 7.31125 3.23566 7.1538 3.07821C6.84381 2.7633 6.52399 2.43364 6.20416 2.13841C5.72196 1.65621 5.1512 1.40527 4.54599 1.40527C3.9457 1.40527 3.3651 1.65621 2.86322 2.13841L1.11648 3.88023C0.476825 4.51988 0.112716 5.29731 0.0339892 6.19774C-0.0545779 7.31959 0.152079 8.51032 0.683481 9.94708C1.50519 12.1662 2.74021 14.2278 4.57059 16.4322C6.79953 19.0892 9.47622 21.1902 12.5367 22.6712C13.7028 23.2272 15.2626 23.8767 16.9995 23.9899ZM5.50055 15.6597C3.75873 13.5636 2.59259 11.6151 1.82009 9.52884C1.34281 8.24462 1.16568 7.24578 1.23949 6.29615C1.29361 5.6811 1.52979 5.16938 1.97262 4.73146L3.70952 2.99456C3.97522 2.7387 4.26553 2.60585 4.55091 2.60585C4.83137 2.60585 5.10691 2.7387 5.37262 2.99948C5.6826 3.28978 5.98274 3.59485 6.29765 3.91467C6.4551 4.07705 6.61748 4.24434 6.78477 4.40671L8.17724 5.79919C8.74801 6.36995 8.74801 6.93088 8.17724 7.50164C8.02963 7.64925 7.88202 7.79687 7.73933 7.94448C7.30633 8.38239 6.90286 8.79571 6.4551 9.19426C6.44526 9.2041 6.44034 9.20902 6.4305 9.21886C6.03195 9.61741 6.09099 10.0012 6.1894 10.2866C6.19432 10.3013 6.19924 10.3112 6.20416 10.3259C6.56335 11.1919 7.07015 12.0136 7.84757 12.9977C9.24989 14.7248 10.726 16.068 12.3596 17.1063C12.5613 17.2342 12.7729 17.3424 12.9795 17.4458C13.1665 17.5392 13.3387 17.6278 13.4913 17.7213C13.5109 17.7311 13.5257 17.741 13.5454 17.7508C13.7028 17.8295 13.8554 17.8689 14.0128 17.8689C14.4015 17.8689 14.6476 17.6229 14.7263 17.5392L16.473 15.7925C16.7387 15.5268 17.0241 15.389 17.3046 15.389C17.649 15.389 17.9295 15.6055 18.1115 15.7925L20.926 18.607C21.6148 19.2958 21.2999 19.9158 20.9112 20.3242C20.7144 20.5358 20.5077 20.7326 20.2912 20.9442C19.9616 21.2591 19.6221 21.5887 19.3121 21.9578C18.7807 22.5285 18.1509 22.7942 17.3292 22.7942C17.2504 22.7942 17.1668 22.7893 17.0881 22.7844C15.5578 22.686 14.1408 22.0906 13.073 21.5838C10.1602 20.1815 7.61632 18.1887 5.50055 15.6597Z" fill="white"/>
<path d="M13.1912 4.39193C12.8615 4.33781 12.5515 4.55923 12.4974 4.88397C12.4433 5.21364 12.6647 5.52362 12.9894 5.57775C14.3426 5.80901 15.5727 6.44866 16.5567 7.42782C17.5359 8.40697 18.1755 9.64199 18.4068 10.9951C18.456 11.2903 18.7119 11.497 19.0022 11.497C19.0366 11.497 19.0711 11.4921 19.1055 11.4871C19.4352 11.433 19.6566 11.1181 19.5975 10.7934C19.3269 9.19424 18.5692 7.73288 17.4129 6.57659C16.2467 5.41538 14.7903 4.66256 13.1912 4.39193Z" fill="white"/>
<path d="M23.3812 11.2906C23.4157 11.2906 23.4501 11.2857 23.4846 11.2808C23.8142 11.2266 24.0357 10.9117 23.9766 10.587C23.5289 7.93981 22.2791 5.53374 20.365 3.61971C18.4461 1.70568 16.04 0.4559 13.3928 0.00814483C13.0632 -0.0459795 12.7532 0.175438 12.6991 0.500184C12.6449 0.82985 12.8664 1.13983 13.1911 1.19396C15.5873 1.60235 17.772 2.73404 19.5089 4.47094C21.2458 6.20784 22.3775 8.39249 22.7859 10.7887C22.8351 11.0839 23.0909 11.2906 23.3812 11.2906Z" fill="white"/>
</g>
<defs>
<clipPath id="clip0">
<rect width="24" height="24" fill="white"/>
</clipPath>
</defs>
</svg>
